<?xml version="1.0" encoding="UTF-8" standalone="no"?>
<svg
   xmlns:dc="http://purl.org/dc/elements/1.1/"
   xmlns:cc="http://creativecommons.org/ns#"
   xmlns:rdf="http://www.w3.org/1999/02/22-rdf-syntax-ns#"
   xmlns:svg="http://www.w3.org/2000/svg"
   xmlns="http://www.w3.org/2000/svg"
   id="svg8"
   version="1.1"
   viewBox="0 0 48.870995 12.055055"
   height="12.055055mm"
   width="48.870995mm">
  <defs
     id="defs2">
    <rect
       id="rect835"
       height="26.873341"
       width="80.875961"
       y="46.580456"
       x="26.105532" />
  </defs>
  <metadata
     id="metadata5">
    <rdf:RDF>
      <cc:Work
         rdf:about="">
        <dc:format>image/svg+xml</dc:format>
        <dc:type
           rdf:resource="http://purl.org/dc/dcmitype/StillImage" />
        <dc:title></dc:title>
      </cc:Work>
    </rdf:RDF>
  </metadata>
  <g
     id="layer1">
    <text
       style="font-style:normal;font-weight:normal;font-size:10.58329999999999949px;line-height:1.25;font-family:sans-serif;white-space:pre;shape-inside:url(#rect835);fill:#000000;fill-opacity:1;stroke:none;"
       id="text833"
       xml:space="preserve" />
    <text
       id="text841"
       y="9.7947273"
       x="-0.79581451"
       style="font-style:normal;font-weight:normal;font-size:10.5833px;line-height:1.25;font-family:sans-serif;fill:#323338;fill-opacity:1;stroke:none;stroke-width:0.264583"
       xml:space="preserve"><tspan
         style="font-style:normal;font-variant:normal;font-weight:normal;font-stretch:normal;font-size:10.5833px;font-family:'DIN Alternate';-inkscape-font-specification:'DIN Alternate, Normal';font-variant-ligatures:normal;font-variant-caps:normal;font-variant-numeric:normal;font-variant-east-asian:normal;fill:#323338;fill-opacity:1;stroke-width:0.264583"
         y="9.7947273"
         x="-0.79581451"
         id="tspan839">INSP</tspan></text>
    <text
       id="text845"
       y="9.7947273"
       x="34.086414"
       style="font-style:normal;font-variant:normal;font-weight:normal;font-stretch:normal;font-size:10.5833px;line-height:1.25;font-family:'.Apple Color Emoji UI';-inkscape-font-specification:'.Apple Color Emoji UI, Normal';font-variant-ligatures:normal;font-variant-caps:normal;font-variant-numeric:normal;font-variant-east-asian:normal;fill:#323338;fill-opacity:1;stroke-width:0.264583"
       xml:space="preserve"><tspan
         style="font-style:normal;font-variant:normal;font-weight:normal;font-stretch:normal;font-size:10.5833px;font-family:'DIN Alternate';-inkscape-font-specification:'DIN Alternate, Normal';font-variant-ligatures:normal;font-variant-caps:normal;font-variant-numeric:normal;font-variant-east-asian:normal;fill:#323338;fill-opacity:1;stroke-width:0.264583"
         y="9.7947273"
         x="34.086414"
         id="tspan843">IRE</tspan></text>
    <text
       id="text849"
       y="12.055055"
       x="22.213221"
       style="font-size:16.9333px;line-height:1.25;font-family:'DIN Alternate';-inkscape-font-specification:'DIN Alternate, Normal';fill:#32a8a8;fill-opacity:1;stroke-width:0.264583"
       xml:space="preserve"><tspan
         style="font-size:16.9333px;fill:#32a8a8;fill-opacity:1;stroke-width:0.264583"
         y="12.055055"
         x="22.213221"
         id="tspan847">H</tspan></text>
  </g>
</svg>
